[
    {
        "docType": "BAND",
        "genres": "album rock, blues-rock, british blues, british invasion, classic rock, folk rock, hard rock, mellow gold, protopunk, psychedelic rock, rock, roots rock, singer-songwriter, soft rock",
        "name": "The Rolling Stones",
        "url": "https://i.scdn.co/image/999fa985ec8beb68af356b1fc1bc3cd5ba3e0a68",
        "popularity": 79,
        "albums": [
            "ZaOktcYnGE547Bb2",
            "qU3Yee4mZT6w3uRr",
            "P71hzVNNvUlRer7S",
            "RNuUBzQ416EHbIhL",
            "7H42EV7vzPaKaIyg",
            "TGfusTT3jGtP82uO",
            "zQ6jmic5wYXJpLwh",
            "BajB4dJdNtp3MKzp",
            "7wcbT4f8MukjaGZ3",
            "x3fgmzVkOqvgiF6p",
            "zYwrEHCnS6xK7Cvk",
            "1jNkkwoUH23D4iZ4",
            "Kgwf1KkJ7Yleh26K",
            "xoRPQjOHYALzc87p",
            "Lgt0u444H7MBzMsc",
            "CJwjSVZWi2YKTJpF",
            "KxGEdWfc8zJTRJEx",
            "15sQ7XojV9Y0PNq0",
            "MUDgNBj0rOa86brc",
            "WyCx6JIPnq5w18JO"
        ],
        "artists": [
            "0uhLsOtMGdQ4GOu9",
            "wAYJiRcWHLhSut2L",
            "rUizCSVdlpFEPi7K",
            "YTxV0dCtQf50LP9F"
        ],
        "id": "Gq4oaaeaKLQOsKaL",
        "createdAt": "2017-04-10T16:30:16.846Z",
        "updatedAt": "2017-04-10T16:30:16.846Z"
    },
    {
        "docType": "BAND",
        "genres": "album rock, alternative rock, art rock, blues-rock, british blues, classic rock, folk rock, funk rock, hard rock, mellow gold, rock, roots rock, singer-songwriter, soft rock",
        "name": "Led Zeppelin",
        "url": "https://i.scdn.co/image/207803ce008388d3427a685254f9de6a8f61dc2e",
        "popularity": 78,
        "albums": [
            "FQmSEaA8gGD64A0S",
            "J5x3xf7KHiIvWdjU",
            "PozqKW4gYw3I3q3z",
            "zmkbeoDgXYm7Zs3F",
            "KOjk2036slnXGQ0h",
            "1TkJG2IPFekH4aH2",
            "RYPttS7bia1Si1ib",
            "Z2lr6gt4WzQOm96H",
            "rTO9bCNF7KWFbW9o",
            "IGiTsPcGZnqSaBO1",
            "TNHjwBo4UiP0USR9",
            "NKuPbXFn24NWEDv2",
            "hJZNj9J7DNPJYHVh",
            "LhxKOfH54AYy8oc2",
            "j2xhBp7FWSAXTN38",
            "p9nVT09Kol8qwzwd",
            "hduqH4fm96c1uUCa",
            "UBZYCB1HMHpmvkc9",
            "93XIQzEMRmE14v5P",
            "OYy0yeTkgvxTIhpo"
        ],
        "artists": [
            "UkWRaaM1VC25ofh6",
            "1gLzrpavEoPn3fBA",
            "b5Dl038wi9U2U8aZ",
            "KxbYalsDMKX2h0xz"
        ],
        "id": "g9d8rmp0CvzmHrN6",
        "createdAt": "2017-04-10T16:30:16.843Z",
        "updatedAt": "2017-04-10T16:30:16.843Z"
    },
    {
        "docType": "BAND",
        "genres": "british invasion, classic rock, folk rock, mellow gold, merseybeat, protopunk, psychedelic rock, rock, singer-songwriter",
        "name": "The Beatles",
        "url": "https://i.scdn.co/image/934c57df9fbdbbaa5e93b55994a4cb9571fd2085",
        "popularity": 85,
        "albums": [
            "qzCub1mWhGFyGN77",
            "q5GXfoWotrPIlNo5",
            "mE9wyIN1FMq77bNl",
            "kJZovVw9JH1vP05n",
            "mrTjdDHbmvOVwGNd",
            "fQEgDfqLK8pgOvem",
            "p0G6LfvXn7xgBlW1",
            "md302DMvD19AHuQj",
            "0Ebal183p6daqP9H",
            "fo421hUHkF92HrKN",
            "cwu3atLHW72mUxYD",
            "JMa03wHQfZiR1d3v",
            "diCG7CkQZ9IfDvtI",
            "SFo5w3fqk6UhXc9a",
            "SKKOji6bCgpi7RB8",
            "v88JVipPB0Wt6fAo",
            "ONUzQgrC7cezv2cL",
            "l4gAOHnKGbsCegoD",
            "7BQS2SUR5KaYS0w4",
            "axldOKNS4DZInHer"
        ],
        "artists": [
            "A16SkP5mW97doN30",
            "VauU2FUuhlYNzIjc",
            "nvPfv7IYvEm2Wb7s",
            "gTk2N4LOPB1lOE2P"
        ],
        "id": "zQ1LTSK1CUfGDWsY",
        "createdAt": "2017-04-10T16:30:16.846Z",
        "updatedAt": "2017-04-10T16:30:16.846Z"
    }
]
